<svg width="257" height="257" viewBox="0 0 257 257" fill="none" xmlns="http://www.w3.org/2000/svg">
<path d="M256.961 226.077V75.9619L184.51 33.072L143.207 78.6425L194.667 110.81V256.904L256.961 226.077Z" fill="white" fill-opacity="0.8"/>
<path d="M128.256 147.669L61.8991 189.74V255.415L128.256 210.663V147.669Z" fill="black"/>
<path d="M143.83 79.1642L184.456 33.072L165.318 45.3957L128.256 69.2604L143.83 79.1642Z" fill="black"/>
<path d="M0.961365 226.076L61.9014 255.563L63.9328 110.809L184.433 33.0222L128.935 0.903822L0.961365 75.9612V226.076Z" fill="white"/>
</svg>
