<svg width="258" height="261" viewBox="0 0 258 261" fill="none" xmlns="http://www.w3.org/2000/svg">
<path d="M257.371 229.623V77.1794L184.541 33.4277L143.03 79.7196L194.493 112.235V260.942L257.371 229.623Z" fill="#58B3FF"/>
<path d="M128.297 149.979L61.3245 192.745V259.448L127.998 213.963L128.327 150.009H128.297V149.979Z" fill="#0B2541"/>
<path d="M143.688 80.4369L184.54 33.4277L165.235 45.9196L128.297 70.3656L143.688 80.4369Z" fill="#0B2541"/>
<path d="M0 229.623L61.3242 259.598L63.3264 112.563L184.48 33.4576L128.685 0.942627L0 77.1793V229.593V229.623Z" fill="#FF465C"/>
<path d="M0 229.623L61.3242 259.598L63.3264 112.563L184.48 33.4576L128.685 0.942627L0 77.1793V229.593V229.623Z" fill="#FF465C"/>
</svg>
